class Main {
  public static void main(String[] a){
    System.out.println(
	new Test().counting(5 + 3 * 3 - 1)
    );
  }
}
class Test {
  public int counting(int num) {
        int c;
        c = 1;
        return b;
  }
}

